src/simple.vcd
$date
	Thu Jan 11 16:21:23 2018
$end
$version
	Icarus Verilog
$end
$timescale
	1ps
$end
$scope module openmips_min_sopc_tb $end
$var reg 1 ! CLOCK_50 $end
$var reg 1 " rst $end
$scope module openmips_min_sopc0 $end
$var wire 1 ! clk $end
$var wire 1 " rst $end
$var wire 1 # rom_ce $end
$var wire 1 $ mem_we_i $end
$var wire 4 % mem_sel_i [3:0] $end
$var wire 32 & mem_data_o [31:0] $end
$var wire 32 ' mem_data_i [31:0] $end
$var wire 1 ( mem_ce_i $end
$var wire 32 ) mem_addr_i [31:0] $end
$var wire 32 * inst_addr [31:0] $end
$var wire 32 + inst [31:0] $end
$var wire 1 , arti $end
$scope module data_ram0 $end
$var wire 1 ! clk $end
$var wire 1 , who $end
$var wire 1 $ we $end
$var wire 4 - sel [3:0] $end
$var wire 1 # pc_ce $end
$var wire 32 . pc_addr [31:0] $end
$var wire 1 ( mem_ce $end
$var wire 32 / mem_addr [31:0] $end
$var wire 32 0 data_i [31:0] $end
$var reg 32 1 data_o [31:0] $end
$var reg 32 2 inst [31:0] $end
$upscope $end
$scope module openmips0 $end
$var wire 1 , artificial_go_out $end
$var wire 1 ! clk $end
$var wire 32 3 ram_data_i [31:0] $end
$var wire 32 4 rom_addr_o [31:0] $end
$var wire 32 5 rom_data_i [31:0] $end
$var wire 1 " rst $end
$var wire 1 6 wb_wreg_i $end
$var wire 32 7 wb_wdata_i [31:0] $end
$var wire 5 8 wb_wd_i [4:0] $end
$var wire 1 9 stallreq_from_id $end
$var wire 1 : stallreq_from_ex $end
$var wire 6 ; stall [5:0] $end
$var wire 1 # rom_ce_o $end
$var wire 1 < reg2_read $end
$var wire 32 = reg2_data [31:0] $end
$var wire 5 > reg2_addr [4:0] $end
$var wire 1 ? reg1_read $end
$var wire 32 @ reg1_data [31:0] $end
$var wire 5 A reg1_addr [4:0] $end
$var wire 1 $ ram_we_o $end
$var wire 4 B ram_sel_o [3:0] $end
$var wire 32 C ram_data_o [31:0] $end
$var wire 1 ( ram_ce_o $end
$var wire 32 D ram_addr_o [31:0] $end
$var wire 32 E pc [31:0] $end
$var wire 32 F offset_from_id_ex [31:0] $end
$var wire 32 G offset_from_id [31:0] $end
$var wire 1 H mem_wreg_o $end
$var wire 1 I mem_wreg_i $end
$var wire 32 J mem_wdata_o [31:0] $end
$var wire 32 K mem_wdata_i [31:0] $end
$var wire 5 L mem_wd_o [4:0] $end
$var wire 5 M mem_wd_i [4:0] $end
$var wire 32 N mem_reg2_i [31:0] $end
$var wire 32 O mem_mem_addr_i [31:0] $end
$var wire 8 P mem_aluop_o [7:0] $end
$var wire 8 Q mem_aluop_i [7:0] $end
$var wire 1 R id_wreg_o $end
$var wire 5 S id_wd_o [4:0] $end
$var wire 32 T id_reg2_o [31:0] $end
$var wire 32 U id_reg1_o [31:0] $end
$var wire 32 V id_pc_i [31:0] $end
$var wire 32 W id_link_address_o [31:0] $end
$var wire 32 X id_inst_i [31:0] $end
$var wire 1 Y id_branch_flag_o $end
$var wire 3 Z id_alusel_o [2:0] $end
$var wire 8 [ id_aluop_o [7:0] $end
$var wire 1 \ ex_wreg_o $end
$var wire 1 ] ex_wreg_i $end
$var wire 32 ^ ex_wdata_o [31:0] $end
$var wire 5 _ ex_wd_o [4:0] $end
$var wire 5 ` ex_wd_i [4:0] $end
$var wire 32 a ex_reg2_o [31:0] $end
$var wire 32 b ex_reg2_i [31:0] $end
$var wire 32 c ex_reg1_i [31:0] $end
$var wire 32 d ex_mem_addr_o [31:0] $end
$var wire 32 e ex_link_address_i [31:0] $end
$var wire 3 f ex_alusel_i [2:0] $end
$var wire 8 g ex_aluop_o [7:0] $end
$var wire 8 h ex_aluop_i [7:0] $end
$var wire 32 i branch_target_address [31:0] $end
$var wire 1 j artificial_or_not $end
$scope module ctrl0 $end
$var wire 1 " rst $end
$var wire 1 9 stallreq_from_id $end
$var wire 1 : stallreq_from_ex $end
$var reg 6 k stall [5:0] $end
$upscope $end
$scope module ex0 $end
$var wire 8 l aluop_o [7:0] $end
$var wire 32 m inst_i [31:0] $end
$var wire 32 n reg2_o [31:0] $end
$var wire 1 " rst $end
$var wire 1 ] wreg_i $end
$var wire 5 o wd_i [4:0] $end
$var wire 32 p reg2_i [31:0] $end
$var wire 32 q reg1_i [31:0] $end
$var wire 32 r offset_i [31:0] $end
$var wire 32 s mem_addr_o [31:0] $end
$var wire 32 t link_address_i [31:0] $end
$var wire 3 u alusel_i [2:0] $end
$var wire 8 v aluop_i [7:0] $end
$var reg 32 w arithres [31:0] $end
$var reg 32 x logicout [31:0] $end
$var reg 32 y shiftres [31:0] $end
$var reg 1 : stallreq $end
$var reg 5 z wd_o [4:0] $end
$var reg 32 { wdata_o [31:0] $end
$var reg 1 \ wreg_o $end
$upscope $end
$scope module ex_mem0 $end
$var wire 1 ! clk $end
$var wire 8 | ex_aluop [7:0] $end
$var wire 32 } ex_mem_addr [31:0] $end
$var wire 32 ~ ex_reg2 [31:0] $end
$var wire 5 !" ex_wd [4:0] $end
$var wire 32 "" ex_wdata [31:0] $end
$var wire 1 \ ex_wreg $end
$var wire 1 " rst $end
$var wire 6 #" stall [5:0] $end
$var reg 8 $" mem_aluop [7:0] $end
$var reg 32 %" mem_mem_addr [31:0] $end
$var reg 32 &" mem_reg2 [31:0] $end
$var reg 5 '" mem_wd [4:0] $end
$var reg 32 (" mem_wdata [31:0] $end
$var reg 1 I mem_wreg $end
$upscope $end
$scope module id0 $end
$var wire 8 )" ex_aluop_i [7:0] $end
$var wire 5 *" ex_wd_i [4:0] $end
$var wire 32 +" ex_wdata_i [31:0] $end
$var wire 1 \ ex_wreg_i $end
$var wire 32 ," inst_o [31:0] $end
$var wire 1 " rst $end
$var wire 1 9 stallreq $end
$var wire 3 -" sub_op [2:0] $end
$var wire 32 ." reg2_data_i [31:0] $end
$var wire 32 /" reg1_data_i [31:0] $end
$var wire 32 0" pc_i [31:0] $end
$var wire 7 1" op [6:0] $end
$var wire 1 H mem_wreg_i $end
$var wire 32 2" mem_wdata_i [31:0] $end
$var wire 5 3" mem_wd_i [4:0] $end
$var wire 1 4" mem_inst_is_load $end
$var wire 8 5" mem_aluop_i [7:0] $end
$var wire 32 6" inst_i [31:0] $end
$var wire 1 7" ex_inst_is_load $end
$var reg 8 8" aluop_o [7:0] $end
$var reg 3 9" alusel_o [2:0] $end
$var reg 1 Y branch_flag_o $end
$var reg 32 :" branch_target_address_o [31:0] $end
$var reg 32 ;" imm [31:0] $end
$var reg 1 <" instvalid $end
$var reg 32 =" link_addr_o [31:0] $end
$var reg 32 >" offset_o [31:0] $end
$var reg 32 ?" reg1 [31:0] $end
$var reg 5 @" reg1_addr_o [4:0] $end
$var reg 32 A" reg1_o [31:0] $end
$var reg 1 ? reg1_read_o $end
$var reg 32 B" reg2 [31:0] $end
$var reg 5 C" reg2_addr_o [4:0] $end
$var reg 32 D" reg2_o [31:0] $end
$var reg 1 < reg2_read_o $end
$var reg 1 E" stallreq_for_reg1_loadrelate $end
$var reg 1 F" stallreq_for_reg2_loadrelate $end
$var reg 5 G" wd_o [4:0] $end
$var reg 1 R wreg_o $end
$upscope $end
$scope module id_ex0 $end
$var wire 1 ! clk $end
$var wire 8 H" id_aluop [7:0] $end
$var wire 3 I" id_alusel [2:0] $end
$var wire 32 J" id_inst [31:0] $end
$var wire 32 K" id_link_address [31:0] $end
$var wire 32 L" id_reg1 [31:0] $end
$var wire 32 M" id_reg2 [31:0] $end
$var wire 5 N" id_wd [4:0] $end
$var wire 1 R id_wreg $end
$var wire 32 O" offset_i [31:0] $end
$var wire 1 " rst $end
$var wire 6 P" stall [5:0] $end
$var reg 8 Q" ex_aluop [7:0] $end
$var reg 3 R" ex_alusel [2:0] $end
$var reg 32 S" ex_inst [31:0] $end
$var reg 32 T" ex_link_address [31:0] $end
$var reg 32 U" ex_reg1 [31:0] $end
$var reg 32 V" ex_reg2 [31:0] $end
$var reg 5 W" ex_wd [4:0] $end
$var reg 1 ] ex_wreg $end
$var reg 32 X" offset_o [31:0] $end
$upscope $end
$scope module if_id0 $end
$var wire 1 ! clk $end
$var wire 1 Y if_branch $end
$var wire 32 Y" if_inst [31:0] $end
$var wire 1 " rst $end
$var wire 6 Z" stall [5:0] $end
$var wire 32 [" if_pc [31:0] $end
$var wire 1 j artificial $end
$var reg 32 \" id_inst [31:0] $end
$var reg 32 ]" id_pc [31:0] $end
$upscope $end
$scope module mem0 $end
$var wire 8 ^" aluop_i [7:0] $end
$var wire 8 _" aluop_o [7:0] $end
$var wire 32 `" mem_addr_i [31:0] $end
$var wire 32 a" mem_data_i [31:0] $end
$var wire 1 $ mem_we_o $end
$var wire 32 b" reg2_i [31:0] $end
$var wire 1 " rst $end
$var wire 5 c" wd_i [4:0] $end
$var wire 32 d" wdata_i [31:0] $end
$var wire 1 I wreg_i $end
$var wire 32 e" zero32 [31:0] $end
$var reg 32 f" mem_addr_o [31:0] $end
$var reg 1 ( mem_ce_o $end
$var reg 32 g" mem_data_o [31:0] $end
$var reg 4 h" mem_sel_o [3:0] $end
$var reg 1 i" mem_we $end
$var reg 5 j" wd_o [4:0] $end
$var reg 32 k" wdata_o [31:0] $end
$var reg 1 H wreg_o $end
$upscope $end
$scope module mem_wb0 $end
$var wire 1 ! clk $end
$var wire 5 l" mem_wd [4:0] $end
$var wire 32 m" mem_wdata [31:0] $end
$var wire 1 H mem_wreg $end
$var wire 1 " rst $end
$var wire 6 n" stall [5:0] $end
$var reg 5 o" wb_wd [4:0] $end
$var reg 32 p" wb_wdata [31:0] $end
$var reg 1 6 wb_wreg $end
$upscope $end
$scope module pc_reg0 $end
$var wire 1 Y branch_flag_i $end
$var wire 32 q" branch_target_address_i [31:0] $end
$var wire 1 ! clk $end
$var wire 1 " rst $end
$var wire 6 r" stall [5:0] $end
$var reg 1 j artificial $end
$var reg 1 # ce $end
$var reg 32 s" pc [31:0] $end
$upscope $end
$scope module regfile1 $end
$var wire 1 ! clk $end
$var wire 5 t" raddr1 [4:0] $end
$var wire 5 u" raddr2 [4:0] $end
$var wire 1 ? re1 $end
$var wire 1 < re2 $end
$var wire 1 " rst $end
$var wire 5 v" waddr [4:0] $end
$var wire 32 w" wdata [31:0] $end
$var wire 1 6 we $end
$var reg 32 x" rdata1 [31:0] $end
$var reg 32 y" rdata2 [31:0] $end
$upscope $end
$upscope $end
$upscope $end
$upscope $end
$enddefinitions $end
#0
$dumpvars
b0 y"
b0 x"
bx w"
bx v"
b0 u"
b0 t"
bx s"
b0 r"
b0 q"
bx p"
bx o"
b0 n"
b0 m"
b0 l"
b0 k"
b0 j"
0i"
b0 h"
b0 g"
b0 f"
b0 e"
bx d"
bx c"
bx b"
b0 a"
bx `"
bx _"
bx ^"
bx ]"
bx \"
bx ["
b0 Z"
bx Y"
bx X"
bx W"
bx V"
bx U"
bx T"
bx S"
bx R"
bx Q"
b0 P"
bx O"
b0 N"
b0 M"
b0 L"
b0 K"
bz J"
b0 I"
b11110001 H"
b0 G"
0F"
0E"
b0 D"
b0 C"
b0 B"
b0 A"
b0 @"
b0 ?"
bx >"
b0 ="
0<"
b0 ;"
b0 :"
b0 9"
b11110001 8"
x7"
bx 6"
bx 5"
x4"
b0 3"
b0 2"
bx 1"
bx 0"
b0 /"
b0 ."
bx -"
bx ,"
b0 +"
bx *"
bx )"
bx ("
bx '"
bx &"
bx %"
bx $"
b0 #"
b0 ""
bx !"
bx ~
bx }
bx |
b0 {
bx z
b0 y
b0 x
b0 w
bx v
bx u
bx t
bx s
bx r
bx q
bx p
bx o
bx n
bz m
bx l
b0 k
xj
b0 i
bx h
bx g
bx f
bx e
bx d
bx c
bx b
bx a
bx `
bx _
b0 ^
x]
x\
b11110001 [
b0 Z
0Y
bx X
b0 W
bx V
b0 U
b0 T
b0 S
0R
bx Q
bx P
bx O
bx N
bx M
b0 L
bx K
b0 J
xI
0H
bx G
bx F
bx E
b0 D
b0 C
b0 B
b0 A
b0 @
0?
b0 >
b0 =
0<
b0 ;
x:
09
bx 8
bx 7
x6
bx 5
bx 4
b0 3
bx 2
b0 1
b0 0
b0 /
bx .
b0 -
x,
bx +
bx *
b0 )
0(
b0 '
b0 &
b0 %
0$
x#
1"
0!
$end
#10000
b0 +
b0 2
b0 5
b0 Y"
0\
b0 _
b0 z
b0 !"
b0 *"
0:
07"
04"
b0 -"
b0 1"
0#
0,
0j
b0 ,"
b0 X
b0 6"
b0 \"
b0 V
b0 0"
b0 ]"
b0 d
b0 s
b0 }
b0 F
b0 r
b0 X"
0]
b0 `
b0 o
b0 W"
b0 a
b0 n
b0 ~
b0 b
b0 p
b0 V"
b0 c
b0 q
b0 U"
b0 f
b0 u
b0 R"
b11110001 g
b11110001 l
b11110001 |
b11110001 )"
b11110001 h
b11110001 v
b11110001 Q"
b0 N
b0 &"
b0 b"
b0 O
b0 %"
b0 `"
b11110001 P
b11110001 5"
b11110001 _"
b11110001 Q
b11110001 $"
b11110001 ^"
b0 K
b0 ("
b0 d"
0I
b0 M
b0 '"
b0 c"
b0 7
b0 p"
b0 w"
06
b0 8
b0 o"
b0 v"
1!
#20000
0!
#30000
b0 *
b0 .
b0 4
b0 E
b0 ["
b0 s"
1!
#40000
0!
#50000
1!
#60000
0!
#70000
1!
#80000
0!
#90000
1!
#100000
0!
#110000
1!
#120000
0!
#130000
1!
#140000
0!
#150000
1!
#160000
0!
#170000
1!
#180000
0!
#190000
1!
#195000
1<"
b1111 %
b1111 -
b1111 B
b1111 h"
0"
#200000
0!
#210000
b10000000000000000000100110111 +
b10000000000000000000100110111 2
b10000000000000000000100110111 5
b10000000000000000000100110111 Y"
1#
bz S"
b0 e
b0 t
b0 T"
bx d
bx s
bx }
bx F
bx r
bx X"
1!
#220000
0!
#230000
b10000000000000000000000000000 T
b10000000000000000000000000000 D"
b10000000000000000000000000000 M"
b10000000000000000000000000000 U
b10000000000000000000000000000 A"
b10000000000000000000000000000 L"
0<"
b10000000000000000000000000000 ;"
b1 Z
b1 9"
b1 I"
b10000010 [
b10000010 8"
b10000010 H"
1R
b10 S
b10 G"
b10 N"
b1001010000000001000011101111 +
b1001010000000001000011101111 2
b1001010000000001000011101111 5
b1001010000000001000011101111 Y"
b110111 1"
bx O
bx %"
bx `"
b10000000000000000000100110111 ,"
b10000000000000000000100110111 X
b10000000000000000000100110111 6"
b10000000000000000000100110111 \"
b100 *
b100 .
b100 4
b100 E
b100 ["
b100 s"
1!
#240000
0!
#250000
b0 T
b0 D"
b0 M"
b0 U
b0 A"
b0 L"
b10000000000000000000000000000 ^
b10000000000000000000000000000 {
b10000000000000000000000000000 ""
b10000000000000000000000000000 +"
1Y
b1000010011000 i
b1000010011000 :"
b1000010011000 q"
b1000 W
b1000 ="
b1000 K"
b1111111100000000000000001111 +
b1111111100000000000000001111 2
b1111111100000000000000001111 5
b1111111100000000000000001111 Y"
b0 ;"
b10100 >
b10100 C"
b10100 u"
0<"
1R
b1 S
b1 G"
b1 N"
b110 Z
b110 9"
b110 I"
b11110001 [
b11110001 8"
b11110001 H"
1\
b10 _
b10 z
b10 !"
b10 *"
b10000000000000000000000000000 x
b1 -"
b1101111 1"
b1000 *
b1000 .
b1000 4
b1000 E
b1000 ["
b1000 s"
b1001010000000001000011101111 ,"
b1001010000000001000011101111 X
b1001010000000001000011101111 6"
b1001010000000001000011101111 \"
b100 V
b100 0"
b100 ]"
1]
b10 `
b10 o
b10 W"
b10000000000000000000000000000 a
b10000000000000000000000000000 n
b10000000000000000000000000000 ~
b10000000000000000000000000000 b
b10000000000000000000000000000 p
b10000000000000000000000000000 V"
b10000000000000000000000000000 c
b10000000000000000000000000000 q
b10000000000000000000000000000 U"
b1 f
b1 u
b1 R"
b10000010 g
b10000010 l
b10000010 |
b10000010 )"
b10000010 h
b10000010 v
b10000010 Q"
1!
#260000
0!
#270000
b10000000000000000000000000000 J
b10000000000000000000000000000 2"
b10000000000000000000000000000 k"
b10000000000000000000000000000 m"
1H
b10 L
b10 3"
b10 j"
b10 l"
b1000 ^
b1000 {
b1000 ""
b1000 +"
b1 _
b1 z
b1 !"
b1 *"
b0 x
0Y
b0 i
b0 :"
b0 q"
b0 W
b0 ="
b0 K"
b0 >
b0 C"
b0 u"
1<"
0R
b0 S
b0 G"
b0 N"
b0 Z
b0 9"
b0 I"
b1011110110111 +
b1011110110111 2
b1011110110111 5
b1011110110111 Y"
b0 -"
b0 1"
b10000000000000000000000000000 N
b10000000000000000000000000000 &"
b10000000000000000000000000000 b"
b10000010 P
b10000010 5"
b10000010 _"
b10000010 Q
b10000010 $"
b10000010 ^"
b10000000000000000000000000000 K
b10000000000000000000000000000 ("
b10000000000000000000000000000 d"
1I
b10 M
b10 '"
b10 c"
b1000 e
b1000 t
b1000 T"
b1 `
b1 o
b1 W"
b0 a
b0 n
b0 ~
b0 b
b0 p
b0 V"
b0 c
b0 q
b0 U"
b110 f
b110 u
b110 R"
b11110001 g
b11110001 l
b11110001 |
b11110001 )"
b11110001 h
b11110001 v
b11110001 Q"
b0 ,"
b0 X
b0 6"
b0 \"
b0 V
b0 0"
b0 ]"
b1000010011000 *
b1000010011000 .
b1000010011000 4
b1000010011000 E
b1000010011000 ["
b1000010011000 s"
1!
#280000
0!
#290000
b1000000000000 T
b1000000000000 D"
b1000000000000 M"
b1000000000000 U
b1000000000000 A"
b1000000000000 L"
0<"
b1000000000000 ;"
b1 Z
b1 9"
b1 I"
b10000010 [
b10000010 8"
b10000010 H"
1R
b1100010001111000011110010011 +
b1100010001111000011110010011 2
b1100010001111000011110010011 5
b1100010001111000011110010011 Y"
b1111 S
b1111 G"
b1111 N"
b0 ^
b0 {
b0 ""
b0 +"
0\
b0 _
b0 z
b0 !"
b0 *"
b1000 J
b1000 2"
b1000 k"
b1000 m"
b1 L
b1 3"
b1 j"
b1 l"
b1 -"
b110111 1"
b1000010011100 *
b1000010011100 .
b1000010011100 4
b1000010011100 E
b1000010011100 ["
b1000010011100 s"
b1011110110111 ,"
b1011110110111 X
b1011110110111 6"
b1011110110111 \"
b1000010011000 V
b1000010011000 0"
b1000010011000 ]"
b0 e
b0 t
b0 T"
0]
b0 `
b0 o
b0 W"
b0 f
b0 u
b0 R"
b0 N
b0 &"
b0 b"
b11110001 P
b11110001 5"
b11110001 _"
b11110001 Q
b11110001 $"
b11110001 ^"
b1000 K
b1000 ("
b1000 d"
b1 M
b1 '"
b1 c"
b10000000000000000000000000000 7
b10000000000000000000000000000 p"
b10000000000000000000000000000 w"
16
b10 8
b10 o"
b10 v"
1!
#300000
0!
#310000
b1000000000000 ?"
b1000000000000 ^
b1000000000000 {
b1000000000000 ""
b1000000000000 +"
b11000100 T
b11000100 D"
b11000100 M"
bx @
bx /"
bx x"
b1000000000000 U
b1000000000000 A"
b1000000000000 L"
1?
b0 J
b0 2"
b0 k"
b0 m"
0H
b0 L
b0 3"
b0 j"
b0 l"
1\
b1111 _
b1111 z
b1111 !"
b1111 *"
b1000000000000 x
b11000100 ;"
b100 >
b100 C"
b100 u"
b1111 A
b1111 @"
b1111 t"
0<"
1R
b100 Z
b100 9"
b100 I"
b11100011 [
b11100011 8"
b11100011 H"
b100100000000000011100010011 +
b100100000000000011100010011 2
b100100000000000011100010011 5
b100100000000000011100010011 Y"
b0 -"
b10011 1"
b1000 7
b1000 p"
b1000 w"
b1 8
b1 o"
b1 v"
b0 K
b0 ("
b0 d"
0I
b0 M
b0 '"
b0 c"
1]
b1111 `
b1111 o
b1111 W"
b1000000000000 a
b1000000000000 n
b1000000000000 ~
b1000000000000 b
b1000000000000 p
b1000000000000 V"
b1000000000000 c
b1000000000000 q
b1000000000000 U"
b1 f
b1 u
b1 R"
b10000010 g
b10000010 l
b10000010 |
b10000010 )"
b10000010 h
b10000010 v
b10000010 Q"
b1100010001111000011110010011 ,"
b1100010001111000011110010011 X
b1100010001111000011110010011 6"
b1100010001111000011110010011 \"
b1000010011100 V
b1000010011100 0"
b1000010011100 ]"
b1000010100000 *
b1000010100000 .
b1000010100000 4
b1000010100000 E
b1000010100000 ["
b1000010100000 s"
1!
#320000
0!
#330000
b0 @
b0 /"
b0 x"
b1001000 T
b1001000 D"
b1001000 M"
b0 U
b0 A"
b0 L"
b0 ?"
b10000111000000000001000100011 +
b10000111000000000001000100011 2
b10000111000000000001000100011 5
b10000111000000000001000100011 Y"
b1001000 ;"
b1000 >
b1000 C"
b1000 u"
b0 A
b0 @"
b0 t"
1?
0<"
1R
b1110 S
b1110 G"
b1110 N"
b100 Z
b100 9"
b100 I"
b11100011 [
b11100011 8"
b11100011 H"
b1000011000100 ^
b1000011000100 {
b1000011000100 ""
b1000011000100 +"
b1000011000100 w
b0 x
b1000000000000 J
b1000000000000 2"
b1000000000000 k"
b1000000000000 m"
1H
b1111 L
b1111 3"
b1111 j"
b1111 l"
b1000010100100 *
b1000010100100 .
b1000010100100 4
b1000010100100 E
b1000010100100 ["
b1000010100100 s"
b100100000000000011100010011 ,"
b100100000000000011100010011 X
b100100000000000011100010011 6"
b100100000000000011100010011 \"
b1000010100000 V
b1000010100000 0"
b1000010100000 ]"
b11000100 a
b11000100 n
b11000100 ~
b11000100 b
b11000100 p
b11000100 V"
b100 f
b100 u
b100 R"
b11100011 g
b11100011 l
b11100011 |
b11100011 )"
b11100011 h
b11100011 v
b11100011 Q"
b1000000000000 N
b1000000000000 &"
b1000000000000 b"
b10000010 P
b10000010 5"
b10000010 _"
b10000010 Q
b10000010 $"
b10000010 ^"
b1000000000000 K
b1000000000000 ("
b1000000000000 d"
1I
b1111 M
b1111 '"
b1111 c"
b0 7
b0 p"
b0 w"
06
b0 8
b0 o"
b0 v"
1!
#340000
0!
#350000
b1001000 ^
b1001000 {
b1001000 ""
b1001000 +"
b1001000 T
b1001000 D"
b1001000 M"
b1001000 B"
bx =
bx ."
bx y"
b100000100 G
b100000100 >"
b100000100 O"
1<
b1000011000100 J
b1000011000100 2"
b1000011000100 k"
b1000011000100 m"
b1110 _
b1110 z
b1110 !"
b1110 *"
b1001000 w
b100000100 ;"
b1110 >
b1110 C"
b1110 u"
1?
0<"
0R
b100 S
b100 G"
b100 N"
b111 Z
b111 9"
b111 I"
b11101011 [
b11101011 8"
b11101011 H"
b101111000011110010011 +
b101111000011110010011 2
b101111000011110010011 5
b101111000011110010011 Y"
b100011 1"
b1000000000000 7
b1000000000000 p"
b1000000000000 w"
16
b1111 8
b1111 o"
b1111 v"
b11000100 N
b11000100 &"
b11000100 b"
b11100011 P
b11100011 5"
b11100011 _"
b11100011 Q
b11100011 $"
b11100011 ^"
b1000011000100 K
b1000011000100 ("
b1000011000100 d"
b1110 `
b1110 o
b1110 W"
b1001000 a
b1001000 n
b1001000 ~
b1001000 b
b1001000 p
b1001000 V"
b0 c
b0 q
b0 U"
b10000111000000000001000100011 ,"
b10000111000000000001000100011 X
b10000111000000000001000100011 6"
b10000111000000000001000100011 \"
b1000010100100 V
b1000010100100 0"
b1000010100100 ]"
b1000010101000 *
b1000010101000 .
b1000010101000 4
b1000010101000 E
b1000010101000 ["
b1000010101000 s"
1!
#360000
0!
#370000
b1000011000100 U
b1000011000100 A"
b1000011000100 L"
b1000011000100 ?"
b0 =
b0 ."
b0 y"
b1000011000100 @
b1000011000100 /"
b1000011000100 x"
b1 ;
b1 k
b1 #"
b1 P"
b1 Z"
b1 n"
b1 r"
b1 T
b1 D"
b1 M"
b0 B"
1R
b1111100011100000011 +
b1111100011100000011 2
b1111100011100000011 5
b1111100011100000011 Y"
b1111 G
b1111 >"
b1111 O"
b1 ;"
b1 >
b1 C"
b1 u"
b1111 A
b1111 @"
b1111 t"
0<
1?
0<"
b1111 S
b1111 G"
b1111 N"
b100 Z
b100 9"
b100 I"
b11100011 [
b11100011 8"
b11100011 H"
b0 ^
b0 {
b0 ""
b0 +"
0\
b100 _
b100 z
b100 !"
b100 *"
1:
b0 w
b1001000 J
b1001000 2"
b1001000 k"
b1001000 m"
b1110 L
b1110 3"
b1110 j"
b1110 l"
b10011 1"
b1000010101100 *
b1000010101100 .
b1000010101100 4
b1000010101100 E
b1000010101100 ["
b1000010101100 s"
b101111000011110010011 ,"
b101111000011110010011 X
b101111000011110010011 6"
b101111000011110010011 \"
b1000010101000 V
b1000010101000 0"
b1000010101000 ]"
b100000100 d
b100000100 s
b100000100 }
b100000100 F
b100000100 r
b100000100 X"
0]
b100 `
b100 o
b100 W"
b111 f
b111 u
b111 R"
b11101011 g
b11101011 l
b11101011 |
b11101011 )"
b11101011 h
b11101011 v
b11101011 Q"
b1001000 N
b1001000 &"
b1001000 b"
b1001000 K
b1001000 ("
b1001000 d"
b1110 M
b1110 '"
b1110 c"
b1000011000100 7
b1000011000100 p"
b1000011000100 w"
1!
#380000
0!
#390000
b1000011000101 ?"
b0 ;
b0 k
b0 #"
b0 P"
b0 Z"
b0 n"
b0 r"
b1000011000101 ^
b1000011000101 {
b1000011000101 ""
b1000011000101 +"
b0 T
b0 D"
b0 M"
b1000011000101 U
b1000011000101 A"
b1000011000101 L"
b0 G
b0 >"
b0 O"
b1 %
b1 -
b1 B
b1 h"
1(
b1001000010010000100100001001000 '
b1001000010010000100100001001000 0
b1001000010010000100100001001000 C
b1001000010010000100100001001000 g"
1$
1i"
b100000100 )
b100000100 /
b100000100 D
b100000100 f"
b0 J
b0 2"
b0 k"
b0 m"
0H
b100 L
b100 3"
b100 j"
b100 l"
1\
b1111 _
b1111 z
b1111 !"
b1111 *"
0:
b1000011000101 w
b0 ;"
b0 >
b0 C"
b0 u"
1?
0<"
1R
b1110 S
b1110 G"
b1110 N"
b111 Z
b111 9"
b111 I"
b11101001 [
b11101001 8"
b11101001 H"
b0 +
b0 2
b0 5
b0 Y"
b100 -"
b11 1"
b1001000 7
b1001000 p"
b1001000 w"
b1110 8
b1110 o"
b1110 v"
b100000100 O
b100000100 %"
b100000100 `"
b11101011 P
b11101011 5"
b11101011 _"
b11101011 Q
b11101011 $"
b11101011 ^"
b0 K
b0 ("
b0 d"
0I
b100 M
b100 '"
b100 c"
b1111 F
b1111 r
b1111 X"
1]
b1111 `
b1111 o
b1111 W"
b1 a
b1 n
b1 ~
b1 b
b1 p
b1 V"
b1000011010011 d
b1000011010011 s
b1000011010011 }
b1000011000100 c
b1000011000100 q
b1000011000100 U"
b100 f
b100 u
b100 R"
b11100011 g
b11100011 l
b11100011 |
b11100011 )"
b11100011 h
b11100011 v
b11100011 Q"
b1111100011100000011 ,"
b1111100011100000011 X
b1111100011100000011 6"
b1111100011100000011 \"
b1000010101100 V
b1000010101100 0"
b1000010101100 ]"
1,
1j
1!
#400000
0!
#410000
b0 @
b0 /"
b0 x"
b1 ;
b1 k
b1 #"
b1 P"
b1 Z"
b1 n"
b1 r"
b0 U
b0 A"
b0 L"
b0 ?"
09
0E"
b0 A
b0 @"
b0 t"
0?
1<"
0R
b0 S
b0 G"
b0 N"
b0 Z
b0 9"
b0 I"
b11110001 [
b11110001 8"
b11110001 H"
b0 ^
b0 {
b0 ""
b0 +"
b1110 _
b1110 z
b1110 !"
b1110 *"
1:
b0 w
0(
b1111 %
b1111 -
b1111 B
b1111 h"
b0 )
b0 /
b0 D
b0 f"
0$
0i"
b1000011000101 J
b1000011000101 2"
b1000011000101 k"
b1000011000101 m"
1H
b1111 L
b1111 3"
b1111 j"
b1111 l"
b11111110000001110001101011100011 +
b11111110000001110001101011100011 2
b11111110000001110001101011100011 5
b11111110000001110001101011100011 Y"
17"
b0 -"
b0 1"
b1000010110000 *
b1000010110000 .
b1000010110000 4
b1000010110000 E
b1000010110000 ["
b1000010110000 s"
0,
0j
b0 ,"
b0 X
b0 6"
b0 \"
b0 V
b0 0"
b0 ]"
b0 F
b0 r
b0 X"
b1110 `
b1110 o
b1110 W"
b0 a
b0 n
b0 ~
b0 b
b0 p
b0 V"
b1000011000101 d
b1000011000101 s
b1000011000101 }
b1000011000101 c
b1000011000101 q
b1000011000101 U"
b111 f
b111 u
b111 R"
b11101001 g
b11101001 l
b11101001 |
b11101001 )"
b11101001 h
b11101001 v
b11101001 Q"
b1 N
b1 &"
b1 b"
b1000011010011 O
b1000011010011 %"
b1000011010011 `"
b11100011 P
b11100011 5"
b11100011 _"
b11100011 Q
b11100011 $"
b11100011 ^"
b1000011000101 K
b1000011000101 ("
b1000011000101 d"
1I
b1111 M
b1111 '"
b1111 c"
b0 7
b0 p"
b0 w"
06
b100 8
b100 o"
b100 v"
1!
#420000
0!
